{
	"info": {
		"_postman_id": "0589696c-40ce-4f14-bdb1-3997edf790d5",
		"name": "Movie and Franchise",
		"schema": "https://schema.getpostman.com/json/collection/v2.1.0/collection.json"
	},
	"item": [
		{
			"name": "Movie",
			"item": [
				{
					"name": "all movies",
					"request": {
						"method": "GET",
						"header": [],
						"url": {
							"raw": "http://localhost:8080/api/v1/movie",
							"protocol": "http",
							"host": [
								"localhost"
							],
							"port": "8080",
							"path": [
								"api",
								"v1",
								"movie"
							]
						}
					},
					"response": []
				},
				{
					"name": "movie by ID",
					"request": {
						"method": "GET",
						"header": [],
						"url": {
							"raw": "http://localhost:8080/api/v1/movie/2",
							"protocol": "http",
							"host": [
								"localhost"
							],
							"port": "8080",
							"path": [
								"api",
								"v1",
								"movie",
								"2"
							]
						}
					},
					"response": []
				},
				{
					"name": "list characters in movie",
					"request": {
						"method": "GET",
						"header": [],
						"url": {
							"raw": "http://localhost:8080/api/v1/movie/1/moviecharacters",
							"protocol": "http",
							"host": [
								"localhost"
							],
							"port": "8080",
							"path": [
								"api",
								"v1",
								"movie",
								"1",
								"moviecharacters"
							]
						}
					},
					"response": []
				},
				{
					"name": "new movie",
					"request": {
						"method": "POST",
						"header": [],
						"body": {
							"mode": "raw",
							"raw": "    {\r\n        \"id\": 1,\r\n        \"title\": \"Harry Potter and the Philosopher´s Stone\",\r\n        \"genre\": \"Adventure, Family, Fantasy\",\r\n        \"releaseYear\": 2001,\r\n        \"director\": \"Chris Columbus\",\r\n        \"posterUrl\": \"https://m.media-amazon.com/images/M/MV5BMzkyZGFlOWQtZjFlMi00N2YwLWE2OWQtYTgxY2NkNmM1NjMwXkEyXkFqcGdeQXVyNjY1NTM1MzA@.V1.jpg\",\r\n        \"trailerUrl\": \"https://youtu.be/VyHV0BRtdxo\",\r\n        \"movieCharacterList\": [\r\n            \"/api/v1/moviecharacter/3\",\r\n            \"/api/v1/moviecharacter/3\"\r\n        ],\r\n        \"franchise\": \"/api/v1/franchise/1\"\r\n    }",
							"options": {
								"raw": {
									"language": "json"
								}
							}
						},
						"url": {
							"raw": "http://localhost:8080/api/v1/movie",
							"protocol": "http",
							"host": [
								"localhost"
							],
							"port": "8080",
							"path": [
								"api",
								"v1",
								"movie"
							]
						}
					},
					"response": []
				},
				{
					"name": "update movie",
					"request": {
						"method": "PUT",
						"header": [],
						"body": {
							"mode": "raw",
							"raw": "    {\r\n        \"id\": 2,\r\n        \"title\": \"Harry Potter and the Chamber of Secrets\",\r\n        \"genre\": \"Adventure, Family, Fantasy\",\r\n        \"releaseYear\": 2002,\r\n        \"director\": \"Chris Columbus\",\r\n        \"posterUrl\": \"https://www.imdb.com/title/tt0295297/mediaviewer/rm3790637825/?ref_=tt_ov_i\",\r\n        \"trailerUrl\": \"https://www.youtube.com/watch?v=s4Fh2WQ2Xbk\",\r\n        \"movieCharacterList\": [{\"id\":3}],\r\n        \"franchise\": {\"id\":1}\r\n    }",
							"options": {
								"raw": {
									"language": "json"
								}
							}
						},
						"url": {
							"raw": "http://localhost:8080/api/v1/movie/1",
							"protocol": "http",
							"host": [
								"localhost"
							],
							"port": "8080",
							"path": [
								"api",
								"v1",
								"movie",
								"1"
							]
						}
					},
					"response": []
				},
				{
					"name": "update list of charaters",
					"request": {
						"method": "PATCH",
						"header": [],
						"body": {
							"mode": "raw",
							"raw": "{\r\n    \"movie\": \"Harry Potter and the Philosopher´s Stone\",\r\n    \"movieCharacters\": [\r\n        \"Harry Potter\",\r\n        \"Harry Potter\"\r\n    ]\r\n}",
							"options": {
								"raw": {
									"language": "json"
								}
							}
						},
						"url": {
							"raw": "http://localhost:8080/api/v1/movie/1/moviecharacters",
							"protocol": "http",
							"host": [
								"localhost"
							],
							"port": "8080",
							"path": [
								"api",
								"v1",
								"movie",
								"1",
								"moviecharacters"
							]
						}
					},
					"response": []
				},
				{
					"name": "Delete Movie",
					"request": {
						"method": "DELETE",
						"header": [],
						"url": {
							"raw": "http://localhost:8080/api/v1/movie/1",
							"protocol": "http",
							"host": [
								"localhost"
							],
							"port": "8080",
							"path": [
								"api",
								"v1",
								"movie",
								"1"
							]
						}
					},
					"response": []
				}
			]
		},
		{
			"name": "Franchise",
			"item": [
				{
					"name": "all franchise",
					"request": {
						"method": "GET",
						"header": []
					},
					"response": []
				},
				{
					"name": "franchise by ID",
					"request": {
						"method": "GET",
						"header": [],
						"url": {
							"raw": "http://localhost:8080/api/v1/franchise/1",
							"protocol": "http",
							"host": [
								"localhost"
							],
							"port": "8080",
							"path": [
								"api",
								"v1",
								"franchise",
								"1"
							]
						}
					},
					"response": []
				},
				{
					"name": "list movies in franchise",
					"request": {
						"method": "GET",
						"header": [],
						"url": {
							"raw": "http://localhost:8080/api/v1/franchise/1/movies",
							"protocol": "http",
							"host": [
								"localhost"
							],
							"port": "8080",
							"path": [
								"api",
								"v1",
								"franchise",
								"1",
								"movies"
							]
						}
					},
					"response": []
				},
				{
					"name": "list characters in franchise",
					"request": {
						"method": "GET",
						"header": [],
						"url": {
							"raw": "http://localhost:8080/api/v1/franchise/1/moviecharacters",
							"protocol": "http",
							"host": [
								"localhost"
							],
							"port": "8080",
							"path": [
								"api",
								"v1",
								"franchise",
								"1",
								"moviecharacters"
							]
						}
					},
					"response": []
				},
				{
					"name": "new franchise",
					"request": {
						"method": "POST",
						"header": [],
						"body": {
							"mode": "raw",
							"raw": "    {\r\n        \"name\": \"Star-wars and putting a String longer shorter than 50 charactersAccording to producer Gary Kurtz, loose plans for a prequel trilogy were developed during the outlining of the original two films.[52] In 1980, Lucas confirmed that he had the nine-film series plotted,[53] but due to the stress of producing the original trilogy, he had decided to cancel further sequels by 1981.[54] In 1983, Lucas explained that\",\r\n        \"description\": \"An orphaned boy enrolls in a school of wizardry, where he learns the truth about himself, his family and the terrible evil that haunts the magical world.\",\r\n        \"movieList\": [{\"id\":3}]\r\n    }",
							"options": {
								"raw": {
									"language": "json"
								}
							}
						},
						"url": {
							"raw": "http://localhost:8080/api/v1/franchise",
							"protocol": "http",
							"host": [
								"localhost"
							],
							"port": "8080",
							"path": [
								"api",
								"v1",
								"franchise"
							]
						}
					},
					"response": []
				},
				{
					"name": "update franchise",
					"request": {
						"method": "PUT",
						"header": [],
						"url": {
							"raw": "http://localhost:8080/api/v1/franchise/1",
							"protocol": "http",
							"host": [
								"localhost"
							],
							"port": "8080",
							"path": [
								"api",
								"v1",
								"franchise",
								"1"
							]
						}
					},
					"response": []
				},
				{
					"name": "update list of movies",
					"request": {
						"method": "PATCH",
						"header": [],
						"body": {
							"mode": "raw",
							"raw": "{\r\n    \"franchise\": \"Harry Potter\",\r\n    \"movies\": [\r\n        \"Harry Potter and the Philosopher´s Stone\",\r\n        \"Harry Potter and the Chamber of Secrets\",\r\n        \"Harry Potter and the Philosopher´s Stone\",\r\n        \"Harry Potter and the Chamber of Secrets\",\r\n        \"Harry Potter and the Philosopher´s Stone\",\r\n        \"Harry Potter and the Chamber of Secrets\",\r\n        \"Harry Potter and the Philosopher´s Stone\",\r\n        \"Harry Potter and the Chamber of Secrets\",\r\n        \"Harry Potter and the Philosopher´s Stone\",\r\n        \"Harry Potter and the Chamber of Secrets\"\r\n    ]\r\n}",
							"options": {
								"raw": {
									"language": "json"
								}
							}
						},
						"url": {
							"raw": "http://localhost:8080/api/v1/franchise/1/movies",
							"protocol": "http",
							"host": [
								"localhost"
							],
							"port": "8080",
							"path": [
								"api",
								"v1",
								"franchise",
								"1",
								"movies"
							]
						}
					},
					"response": []
				},
				{
					"name": "Delete Franchise",
					"request": {
						"method": "DELETE",
						"header": [],
						"url": {
							"raw": "http://localhost:8080/api/v1/franchise/1",
							"protocol": "http",
							"host": [
								"localhost"
							],
							"port": "8080",
							"path": [
								"api",
								"v1",
								"franchise",
								"1"
							]
						}
					},
					"response": []
				}
			]
		},
		{
			"name": "MovieCharacter",
			"item": [
				{
					"name": "all MovieCharacter",
					"request": {
						"method": "GET",
						"header": [],
						"url": {
							"raw": "http://localhost:8080/api/v1/moviecharacter",
							"protocol": "http",
							"host": [
								"localhost"
							],
							"port": "8080",
							"path": [
								"api",
								"v1",
								"moviecharacter"
							]
						}
					},
					"response": []
				},
				{
					"name": "moviecharacter by ID",
					"request": {
						"method": "GET",
						"header": [],
						"url": {
							"raw": "http://localhost:8080/api/v1/moviecharacter/1",
							"protocol": "http",
							"host": [
								"localhost"
							],
							"port": "8080",
							"path": [
								"api",
								"v1",
								"moviecharacter",
								"1"
							]
						}
					},
					"response": []
				},
				{
					"name": "new moviecharacter",
					"request": {
						"method": "POST",
						"header": [],
						"body": {
							"mode": "raw",
							"raw": "{\r\n    \"id\": 1,\r\n    \"fullName\": \"Frodo Baggins\",\r\n    \"alias\": \"Mr Underhill\",\r\n    \"gender\": \"Male\",\r\n    \"pictureUrl\": \"https://en.wikipedia.org/wiki/Frodo_Baggins#/media/File:Elijah_Wood_as_Frodo_Baggins.png\",\r\n    \"movieList\": [\r\n        \"/api/v1/movie/3\",\r\n        \"/api/v1/movie/4\",\r\n        \"/api/v1/movie/3\",\r\n        \"/api/v1/movie/4\"\r\n    ]\r\n}",
							"options": {
								"raw": {
									"language": "json"
								}
							}
						},
						"url": {
							"raw": "http://localhost:8080/api/v1/moviecharacter/1",
							"protocol": "http",
							"host": [
								"localhost"
							],
							"port": "8080",
							"path": [
								"api",
								"v1",
								"moviecharacter",
								"1"
							]
						}
					},
					"response": []
				},
				{
					"name": "update moviecharacter",
					"request": {
						"method": "PUT",
						"header": [],
						"body": {
							"mode": "raw",
							"raw": "{\r\n    \"id\": 1,\r\n    \"fullName\": \"Frodo Baggins\",\r\n    \"alias\": \"Mr Underhill\",\r\n    \"gender\": \"Male\",\r\n    \"pictureUrl\": \"https://en.wikipedia.org/wiki/Frodo_Baggins#/media/File:Elijah_Wood_as_Frodo_Baggins.png\",\r\n    \"movieList\": [\r\n        \"/api/v1/movie/3\",\r\n        \"/api/v1/movie/4\",\r\n        \"/api/v1/movie/3\",\r\n        \"/api/v1/movie/4\"\r\n    ]\r\n}",
							"options": {
								"raw": {
									"language": "json"
								}
							}
						},
						"url": {
							"raw": "http://localhost:8080/api/v1/moviecharacter/1",
							"protocol": "http",
							"host": [
								"localhost"
							],
							"port": "8080",
							"path": [
								"api",
								"v1",
								"moviecharacter",
								"1"
							]
						}
					},
					"response": []
				},
				{
					"name": "Delete MovieCharacter",
					"request": {
						"method": "DELETE",
						"header": [],
						"url": {
							"raw": "http://localhost:8080/api/v1/moviecharacter/1",
							"protocol": "http",
							"host": [
								"localhost"
							],
							"port": "8080",
							"path": [
								"api",
								"v1",
								"moviecharacter",
								"1"
							]
						}
					},
					"response": []
				}
			]
		}
	]
}